for f in cache.out/to_vm/S*02.ftvg.json; do echo; echo $f; python helpers/03_get_contact_volume.py $f; done

cache.out/to_vm/S1.02.ftvg.json
Found 10348 contacts of 19 nodes (180 edges) in [1582026481.9497428, 1582889875.1900415] (9.992977318272546 day(s)).
overall sum = 830794757462.3237
overall: 80285538.99 ~ std = 52647289.38; 0% = 168275.93, 5% = 9512319.6, 10% = 13808683.65, 20% = 22202134.02, 50% = 65624145.19, 80% = 138322154.39, 90% = 154529495.93, 95% = 161933252.46, 100% = 178465977.63
per-edge: 4615526430.35 ~ std = 2297783584.55; 0% = 726043190.6, 5% = 1358987968.63, 10% = 2180301934.72, 20% = 2559839900.87, 50% = 4304276167.04, 80% = 6334196902.67, 90% = 8115159493.67, 95% = 8895308153.83, 100% = 11374416377.31
python helpers/03_get_contact_volume.py $f  22,99s user 0,23s system 99% cpu 23,259 total

cache.out/to_vm/S1-p3b.02.ftvg.json
Found 7964 contacts of 19 nodes (180 edges) in [1582026481.9497428, 1582889805.1090133] (9.992166195260706 day(s)).
overall sum = 637760609975.6685
overall: 80080438.22 ~ std = 52672511.44; 0% = 168275.93, 5% = 5726131.91, 10% = 10910743.62, 20% = 20111124.96, 50% = 65624145.19, 80% = 138034455.42, 90% = 153853004.69, 95% = 161933252.46, 100% = 178465977.63
per-edge: 3543114499.86 ~ std = 2448101628.95; 0% = 278457888.33, 5% = 726043190.6, 10% = 937150313.93, 20% = 1321237990.81, 50% = 3244273575.02, 80% = 5599935773.21, 90% = 7231628815.48, 95% = 8421328722.97, 100% = 10924221942.63
python helpers/03_get_contact_volume.py $f  19,50s user 0,17s system 99% cpu 19,701 total

cache.out/to_vm/S1-p5i.02.ftvg.json
Found 8276 contacts of 19 nodes (180 edges) in [1582026481.9497428, 1582889805.1090133] (9.992166195260706 day(s)).
overall sum = 630719229773.1573
overall: 76210636.75 ~ std = 51382659.51; 0% = 0.0, 5% = 5726131.91, 10% = 10910743.62, 20% = 20111124.96, 50% = 62731376.17, 80% = 130477005.61, 90% = 150161631.43, 95% = 160772816.72, 100% = 178465977.63
per-edge: 3503995720.96 ~ std = 1829463239.27; 0% = 256258944.32, 5% = 681460620.92, 10% = 1143977879.5, 20% = 1669872361.88, 50% = 3386004966.25, 80% = 4941107192.14, 90% = 5860108737.96, 95% = 6651672448.99, 100% = 8307478826.94
python helpers/03_get_contact_volume.py $f  19,81s user 0,24s system 99% cpu 20,178 total

cache.out/to_vm/S2.02.ftvg.json
Found 11428 contacts of 21 nodes (138 edges) in [1582026540.7138267, 1582889985.9820552] (9.993579493385774 day(s)).
overall sum = 1015259915908.1959
overall: 88839684.63 ~ std = 49631397.17; 0% = 168275.93, 5% = 10456132.62, 10% = 17896361.5, 20% = 38447153.18, 50% = 91597468.38, 80% = 138903625.24, 90% = 154544349.8, 95% = 161060551.91, 100% = 178465977.63
per-edge: 7356955912.38 ~ std = 5927213179.67; 0% = 549789972.58, 5% = 1093748573.98, 10% = 1608885174.73, 20% = 2255062177.58, 50% = 4886378738.79, 80% = 12773950221.85, 90% = 16195606787.03, 95% = 19367823636.42, 100% = 24171774398.94
python helpers/03_get_contact_volume.py $f  25,07s user 0,31s system 99% cpu 25,412 total
